…
    rel = "potential-gift", 
    penwidth = .5,
    color = "#CCCCCC90"
  ) %>% 
  left_join(niblings, by = c("from" = "Number")) %>% 
  rename(from_fam = Family) %>% 
  select(-Name) %>% 
  left_join(niblings, by = c("to" = "Number")) %>% 
  rename(to_fam = Family) %>% 
  select(-Name) %>% 
  select(id, from, to, rel, from_fam, to_fam, everything())
nibling_edges
```

    ## # A tibble: 30 × 8
    ##       id  from    to rel            from_fam to_fam    penwidth color    
    ##    <int> <dbl> <dbl> <chr>          <chr>    <chr>        <dbl> <chr>    
    ##  1     1     1     2 potential-gift Flyson   Flyson         0.5 #CCCCCC90
    ##  2     2     1     3 potential-gift Flyson   Flynn          0.5 #CCCCCC90
    ##  3     3     1     4 potential-gift Flyson   Flynn          0.5 #CCCCCC90
    ##  4     4     1     5 potential-gift Flyson   Golwalsky      0.5 #CCCCCC90
    ##  5     5     1     6 potential-gift Flyson   Golwalsky      0.5 #CCCCCC90
    ##  6     6     2     3 potential-gift Flyson   Flynn          0.5 #CCCCCC90
    ##  7     7     2     4 potential-gift Flyson   Flynn          0.5 #CCCCCC90
    ##  8     8     2     5 potential-gift Flyson   Golwalsky      0.5 #CCCCCC90
    ##  9     9     2     6 potential-gift Flyson   Golwalsky      0.5 #CCCCCC90
    ## 10    10     3     4 potential-gift Flynn    Flynn          0.5 #CCCCCC90
    ## # … with 20 more rows
…
